{
    "photos": {
        "page": 1,
        "pages": 132,
        "perpage": 100,
        "total": "13150",
        "photo": [
            {
                "id": "5708719098",
                "owner": "57674881@N02",
                "secret": "f220c3b26d",
                "server": "2381",
                "farm": 3,
                "title": "The Globe Mobile TV",
                "ispublic": 1,
                "isfriend": 0,
                "isfamily": 0
            }
        ]
    },
    "stat": "ok"
}